pair_style hybrid/overlay   mlip Fe.short.ini 0.6 1.1 1.8 1.9   mlip Fe.long.ini 1.8 1.9 6.0 10.0    table/mod spline 1000000
pair_coeff * * mlip 1 Fe Fe
pair_coeff * * mlip 2 Fe Fe
pair_coeff * * table/mod Fe.zbl.table FeFe 2.0 0.6 1.1
